9069	38228	4175.31	1.65	0.95	1.89	0.91	1.45	2.11	1.74	2.19	2.39	0.99	1.06	1.78	7.37	6.90	7.84	8.10	2.60	1.92	1	0

9061	38242	4176.23	28.04	28.37	40.58	28.20	31.80	39.44	37.62	41.14	46.65	22.82	28.58	34.69	148.19	149.14	166.46	169.05	59.89	33.52	21	0

9069	38267	4156.88	54.43	54.85	79.27	55.48	62.15	76.77	72.92	80.64	92.11	45.14	56.11	67.61	289.01	291.39	325.07	329.99	117.17	66.07	41	0

9047	38243	4161.02	80.82	81.33	118.91	81.86	91.77	114.09	108.23	119.03	135.18	66.47	82.57	100.08	429.83	433.63	482.81	489.77	173.80	97.67	61	0

9041	38209	4164.25	106.39	107.80	156.66	108.24	121.40	151.42	142.95	157.98	179.44	87.30	107.98	132.55	570.65	576.74	642.29	650.71	231.08	130.23	81	0

9056	38234	4177.61	132.78	134.28	196.29	135.53	152.47	189.45	178.83	196.93	223.70	110.12	136.56	165.47	710.65	718.12	800.91	811.65	288.36	161.83	101	0

9034	38236	4167.94	159.17	160.76	234.99	161.90	182.10	226.78	214.14	235.87	269.16	130.95	163.02	198.38	851.48	860.36	958.65	971.43	344.99	194.39	121	0

9064	38198	4161.48	185.56	187.24	273.68	188.28	212.45	264.10	249.44	274.82	312.23	152.77	190.55	230.85	991.48	1001.74	1117.26	1132.38	402.27	225.99	141	0

8977	38169	4140.29	211.12	212.77	311.43	213.75	241.35	300.73	283.01	312.12	352.90	173.11	215.95	262.44	1129.84	1143.99	1276.75	1292.16	458.91	257.59	161	0

9032	38187	4170.70	238.34	240.19	352.01	241.95	272.43	338.76	320.05	352.16	400.75	196.92	246.65	295.80	1271.48	1284.51	1432.74	1453.10	515.54	289.19	181	0

8972	38167	4129.23	265.55	267.62	391.65	270.14	303.50	376.79	356.51	393.30	449.80	219.74	275.24	329.60	1413.94	1425.03	1590.49	1616.36	572.17	321.75	201	0

9031	38181	4163.33	291.94	294.10	429.39	295.61	332.40	414.11	391.24	431.70	491.66	240.57	299.58	362.07	1555.58	1568.14	1748.23	1777.30	628.80	353.35	221	0

9015	38184	4142.13	317.51	320.57	469.03	322.90	363.48	451.44	426.54	470.10	537.12	263.39	330.28	394.54	1692.31	1706.93	1905.97	1934.76	686.08	384.95	241	0

9025	38165	4138.44	6.60	6.62	9.44	6.37	7.23	9.16	8.68	9.87	10.77	5.46	6.35	8.01	35.21	35.35	40.09	40.52	14.32	7.66	1	0

9012	38170	4155.49	28.04	27.42	40.58	28.20	31.80	39.44	37.04	40.59	46.65	22.82	28.58	34.25	147.37	149.14	165.58	169.05	59.89	33.52	21	0

9027	38148	4162.41	54.43	54.85	80.22	55.48	62.15	76.77	72.92	80.64	92.11	45.14	56.11	67.61	289.01	290.52	324.20	329.99	116.52	65.12	41	0

