11062	37623	5080.32	1.65	0.95	1.89	0.91	1.45	2.11	1.74	2.19	2.39	0.99	1.06	1.78	6.55	6.90	7.84	8.10	2.60	0.96	1	0

11001	39881	5070.64	26.39	27.42	39.64	28.20	31.07	38.03	36.46	40.59	47.85	22.82	29.64	33.81	137.55	134.49	151.64	156.31	54.68	31.60	21	0

10921	38968	5026.87	51.96	53.90	78.33	54.57	61.42	74.65	71.19	78.99	93.31	44.15	58.22	66.28	269.36	262.94	296.31	304.51	106.75	61.29	41	0

11012	37495	5057.28	77.52	80.38	116.08	80.95	91.05	111.28	106.49	117.94	138.77	65.97	85.75	98.75	400.36	390.53	440.98	453.88	158.83	90.97	61	0

11016	42292	5077.09	103.09	107.80	154.77	108.24	121.40	147.90	141.79	156.88	184.22	87.80	116.45	132.11	534.63	520.70	587.39	604.40	212.20	121.61	81	0

10991	42771	5079.40	127.83	133.34	193.46	133.71	151.03	183.11	175.36	193.63	226.09	107.64	143.97	162.80	668.90	650.01	732.93	752.60	264.93	153.21	101	0

11016	37518	5078.94	152.57	158.87	228.38	158.27	177.04	218.33	206.04	229.29	266.77	126.98	167.26	192.16	794.98	776.74	874.98	901.96	315.70	181.94	121	0

10849	37655	5011.66	177.31	184.40	268.96	185.55	210.28	254.24	241.34	268.78	314.62	150.79	199.02	224.18	922.70	906.05	1023.14	1053.64	369.73	209.71	141	0

10927	37628	4985.86	202.05	209.93	305.77	210.11	239.19	289.46	273.17	305.54	357.68	173.11	225.48	254.43	1050.43	1033.64	1169.55	1205.32	421.15	238.44	161	0

10922	41119	5053.59	227.62	235.47	341.63	237.40	266.65	325.38	307.32	343.39	403.14	193.45	249.83	285.12	1178.97	1160.37	1311.61	1351.21	471.92	268.12	181	0

11202	37678	5167.41	252.36	261.94	377.49	262.87	294.11	360.59	339.15	380.69	446.21	213.78	274.18	315.81	1308.32	1289.68	1453.66	1502.89	522.70	297.81	201	0

11109	37567	5115.34	276.28	286.53	415.24	287.43	325.18	395.10	370.40	417.44	489.27	236.60	303.82	346.06	1436.05	1416.41	1600.94	1653.41	574.77	325.58	221	0

11174	37665	5141.15	304.31	316.79	456.76	317.44	355.53	435.95	412.07	460.77	541.91	258.43	336.64	384.31	1576.87	1546.58	1745.61	1802.77	628.15	358.13	241	0

11155	37622	5140.68	6.60	6.62	9.44	6.37	7.23	9.16	8.10	9.33	10.77	5.46	7.41	8.01	32.75	31.90	36.60	37.05	13.02	7.66	1	0

11133	37782	5131.47	26.39	27.42	39.64	27.29	31.07	38.03	35.30	40.04	46.65	22.82	29.64	33.36	136.73	134.49	152.51	157.47	54.68	30.64	21	0

11107	42028	5105.20	51.96	53.90	78.33	54.57	61.42	74.65	70.03	78.99	93.31	44.64	58.22	65.39	268.54	262.94	297.18	306.83	106.75	60.33	41	0

